Introduction to Public Health Data Science Using R
…
1. filter()

filter() does exactly what it sounds like. It filters your data down to only the observations you want to keep.

#load the dplyr package
library("tidyverse")
#load the data into the global environment
data("mpg")
#`?mpg`

#filter(dataObject, variableConditions) 
filter(mpg, hwy >= 30)

## # A tibble: 26 x 11
##    manufacturer model  displ  year   cyl trans   drv     cty   hwy fl    class  
##    <chr>        <chr>  <dbl> <int> <int> <chr>   <chr> <int> <int> <chr> <chr>  
##  1 audi         a4       2    2008     4 manual f        20    31 p     compact
##  2 audi         a4       2    2008     4 auto(a f        21    30 p     compact
##  3 chevrolet    malibu   2.4  2008     4 auto(l f        22    30 r     midsize
##  4 honda        civic    1.6  1999     4 manual f        28    33 r     subcom
##  5 honda        civic    1.6  1999     4 auto(l f        24    32 r     subcom
##  6 honda        civic    1.6  1999     4 manual f        25    32 r     subcom
##  7 honda        civic    1.6  1999     4 auto(l f        24    32 r     subcom
##  8 honda        civic    1.8  2008     4 manual f        26    34 r     subcom
##  9 honda        civic    1.8  2008     4 auto(l f        25    36 r     subcom
## 10 honda        civic    1.8  2008     4 auto(l f        24    36 c     subcom
## #  with 16 more rows
…
